290301 29396 443
635836 641966 425
552280 554423 421
306915 309306 371
36081 38905 306
182020 185988 334
88740 89689 315
259989 263987 407
464588 468982 413
327956 335160 353
176895 185721 365
387291 393529 436
625663 629132 374
478469 482073 422
147028 155733 370
232429 236953 381
460761 466546 444
135953 141026 344
426661 430398 374
330550 334829 353
368558 371569 392
4485 6328 262
416589 419633 343
592833 597854 372
486643 491004 391
234481 235281 337
341667 346506 441
424888 429344 374
27318 31307 272
501815 506970 426
1926 6664 262
659139 661892 354
300162 306844 340
298700 300067 371
653096 655943 385
68396 71397 325
574155 576301 346
259115 261698 345
53581 61889 335
427139 432204 374
220599 228361 368
439986 443856 356
501942 503328 426
361818 369243 361
511732 518673 470
278231 283222 358
402947 408101 414
334179 338742 366
409862 413153 449
26900 33325 285
557897 563844 359
365061 369926 361
119545 125919 336
242936 247805 350
201314 209385 373
125929 127624 331
89746 92636 333
656415 659260 429
40194 43914 288
477680 484477 422
482985 486975 382
563591 567275 421
568159 573140 377
128830 131098 344
572714 577327 399
561557 563713 359
1 8248 262
652891 658099 429
111507 119653 349
435718 443442 400
569168 572227 377
63492 70407 312
41287 48502 314
176719 180710 365
22477 24848 282
87591 93237 333
499180 506637 426
335508 342516 366
439956 448820 369
562074 567035 421
572244 579373 399
220585 221901 355
21920 25655 282
612699 617107 447
89343 97953 333
141665 149723 375
77408 84558 338
503227 508353 382
72834 79018 351
167459 170147 334
294136 299626 371
575460 580391 399
615729 616775 372
150324 159137 383
143149 147705 357
35568 40750 324
547545 553502 377
45766 53249 340
521453 525476 364
450152 451578 387
420044 426106 418
189816 194861 360
179705 188642 365
84255 90556 333
435574 439407 400
594475 597023 372
498383 504178 426
651476 656563 385
575136 581212 399
42652 50279 314
286412 295165 398
249052 251987 332
141157 146293 375
659960 668106 398
267051 270718 416
387403 388119 330
344904 349550 441
71795 74807 325
71303 77244 351
270154 274767 416
18972 20688 274
273561 280353 389
286049 293119 398
370887 374887 348
156492 161536 370
312922 319029 353
53910 57633 322
444855 450055 369
196840 203913 342
355520 360237 379
27715 35920 324
158616 165326 370
269079 273944 416
387290 392009 436
605206 615074 447
541572 548418 452
124195 128748 331
365662 369445 348
435304 442627 400
251590 256489 363
512488 519324 439
549172 552413 377
604342 607740 341
12322 17469 276
244905 250184 350
613495 618660 447
312330 316497 353
363924 371261 392
536500 537834 377
385805 390605 436
38180 46878 314
28152 32896 285
632929 635361 354
137211 142394 344
615607 620306 372
225962 230633 443
103975 107884 354
516483 517618 333
60807 65058 335
636156 637836 354
234013 237153 381
73908 76148 325
159701 164983 370
253560 257449 363
434205 439279 400
652471 656583 385
116598 123093 336
290466 294945 358
560442 562286 346
190961 194578 347
618129 624175 372
505548 507866 382
98817 104490341
4573 8138 262
392602 395090 405
536218 543940 417
538362 540494 346
557547 563785 359
302385 308408 371
149209 157435 383
495178 500119 395
557990 565561 421
528260 532764 377
55975 64556 335
631677 635308 385
46847 48902 314
529741 535969 377
189336 194392 360
57671 58696 273
39037 40125 306
104272 107550 354
644855 650585 394
101435 105768 341
631008 635782 416
494841 498078 351
479823 485025 422
588111 595190 403
420747 425162 418
632235 636627 416
598500 602353 403
